Chapter 1 Toolbox | Time Series Analysis
…
A tsibble behaves like a tibble, so you can use *tidyverse** verbs. The only thing that will trip you up is that tsibble objects are grouped by the index - group_by() operations only group non-index columns while retaining the index. Use index_by() if you need to summarize at a new time level (e.g., year).

# Group by State retains the Qtr index column.
prison_tsibble %>%
  group_by(State) %>%
  summarize(sum_Count = sum(Count))
## # A tsibble: 384 x 3 [1Q]
## # Key:       State [8]
##    State     Qtr sum_Count
##    <chr>   <qtr>     <dbl>
##  1 ACT   2005 Q1       178
##  2 ACT   2005 Q2       183
##  3 ACT   2005 Q3       187
##  4 ACT   2005 Q4       204
##  5 ACT   2006 Q1       190
##  6 ACT   2006 Q2       190
##  7 ACT   2006 Q3       165
##  8 ACT   2006 Q4       179
##  9 ACT   2007 Q1       172
## 10 ACT   2007 Q2       160
## # ℹ 374 more rows

# But you can change the Qtr index aggregation level with index_by()
prison_tsibble %>%
  index_by(Year = ~ year(.)) %>%
  group_by(State) %>%
  summarise(sum_Count = sum(Count))
## # A tsibble: 96 x 3 [1Y]
## # Key:       State [8]
##    State  Year sum_Count
##    <chr> <dbl>     <dbl>
##  1 ACT    2005       752
##  2 ACT    2006       724
##  3 ACT    2007       673
##  4 ACT    2008       697
##  5 ACT    2009       668
##  6 ACT    2010       842
##  7 ACT    2011       946
##  8 ACT    2012      1085
##  9 ACT    2013      1146
## 10 ACT    2014      1336
## # ℹ 86 more rows

# Add group_by_key() to retain the key
prison_tsibble %>% 
  group_by_key() %>% 
  index_by(Year = ~ year(.)) %>%
  summarize(sum_Count = sum(Count))
## # A tsibble: 768 x 6 [1Y]
## # Key:       State, Gender, Legal, Indigenous [64]
## # Groups:    State, Gender, Legal [32]
##    State Gender Legal    Indigenous  Year sum_Count
##    <chr> <chr>  <chr>    <chr>      <dbl>     <dbl>
##  1 ACT   Female Remanded ATSI        2005         1
##  2 ACT   Female Remanded ATSI        2006         3
##  3 ACT   Female Remanded ATSI        2007         3
##  4 ACT   Female Remanded ATSI        2008         9
##  5 ACT   Female Remanded ATSI        2009         6
##  6 ACT   Female Remanded ATSI        2010         5
##  7 ACT   Female Remanded ATSI        2011         6
##  8 ACT   Female Remanded ATSI        2012         2
##  9 ACT   Female Remanded ATSI        2013         4
## 10 ACT   Female Remanded ATSI        2014         4
## # ℹ 758 more rows
…
